module code.gitea.io/changelog

go 1.13

require (
	code.gitea.io/sdk/gitea v0.12.0
	github.com/cpuguy83/go-md2man/v2 v2.0.0 // indirect
	github.com/google/go-github/v32 v32.1.0
	github.com/urfave/cli/v2 v2.1.1
	golang.org/x/crypto v0.0.0-20200728195943-123391ffb6de // indirect
	gopkg.in/yaml.v2 v2.2.7
)
